{
  "domains" : [{
    "id" : "STORE",
    "desc" : "Store/Club"
  }, {
    "id" : "HOMEOFFICE",
    "desc" : "Home Office"
  }, {
    "id" : "DC",
    "desc" : "DC"
  }, {
    "id" : "VENDOR",
    "desc" : "Vendor"
  }],
  "subDomains" : [{
    "id" : "WMSC",
    "desc" : "WMSC"
  }, {
    "id" : "homeoffice",
    "desc" : "Home Office"
  }, {
    "id" : "nonad",
    "desc" : "Contractor"
  }]
}